{
  "project_info": {
    "project_number": "224282724416",
    "firebase_url": "https://eater-66475.firebaseio.com",
    "project_id": "eater-66475",
    "storage_bucket": "eater-66475.appspot.com"
  },
  "client": [
    {
      "client_info": {
        "mobilesdk_app_id": "1:224282724416:android:e8e31a4a2d083dce",
        "android_client_info": {
          "package_name": "com.batmasterio.eater"
        }
      },
      "oauth_client": [
        {
          "client_id": "224282724416-92jiba5qg6idjqhafjus1vgoh22877rj.apps.googleusercontent.com",
          "client_type": 3
        }
      ],
      "api_key": [
        {
          "current_key": "AIzaSyBxBB60_k8_FebLOxJzpvVHmD7nNVXFGDc"
        }
      ],
      "services": {
        "analytics_service": {
          "status": 1
        },
        "appinvite_service": {
          "status": 1,
          "other_platform_oauth_client": []
        },
        "ads_service": {
          "status": 2
        }
      }
    }
  ],
  "configuration_version": "1"
}